Final project
…
pplbigrams_filtered <- pplbigrams_separated %>%
  filter(!word1 %in% stop_words$word) %>%
  filter(!word2 %in% stop_words$word)

pplbigrams_united <- pplbigrams_filtered %>%
  unite(bigram, word1, word2, sep = " ")

# new bigram counts:
pplbigram_counts <- pplbigrams_united %>% 
  count(bigram, sort = TRUE) %>%
  mutate(freq = n)
pplbigram_counts

## # A tibble: 3,461 x 3
##    bigram                                   n  freq
##    <chr>                                <int> <int>
##  1 addthis_config data_track_addressbar    48    48
##  2 data_track_addressbar false             48    48
##  3 var addthis_config                      48    48
##  4 white paper                             36    36
##  5 additional tariffs                      31    31
##  6 trade war                               19    19
##  7 u.s china                               17    17
##  8 25 percent                              16    16
##  9 arab countries                          16    16
## 10 global supply                           15    15
## #  with 3,451 more rows
…
